Курсова робота
…
Про датасет та пояснення змінних

Для цієї роботи я використаю датасет “World Happiness Report 2021” з Kaggle. Це датасет, який містить дані щодо рівня щастя у різних країнах світу за 2021 рік. Це звіт, який оцінює рівень щастя та задоволення життям у країнах світу. Датасет містить дані з 149 країн зібрані в 2021 році, включаючи інформацію про такі показники, як валовий внутрішній продукт на душу населення, соціальна підтримка, очікувана тривалість життя, вільність від корупції та інші. Датасет складається з 20 змінних, серед яких також є і показник щастя, оцінений на основі опитування населення.

Кожна строка в датасеті відповідає країні, а стовпці містять числові значення показників, оцінені для цієї країни. Датасет є доволі різноманітним і може використовуватися для досліджень з різних галузей

Розгянемо наш датасет поближче та подивимось за що відповідає кожен стовпчик:

as_tibble(happiness1)

# A tibble: 100 × 7
   Ladder.score Logged.GDP.per.capita Social.support Healthy.life.expectancy
          <dbl>                 <dbl>          <dbl>                   <dbl>
 1         4.72                  7.74          0.724                    52.0
 2         4.93                  8.46          0.651                    58.7
 3         6.49                 10.7           0.891                    66.6
 4         6.17                 10.4           0.898                    69.7
 5         5.05                  7.69          0.69                     55.2
 6         6.46                 10.5           0.948                    71.4
 7         6.06                  9.05          0.762                    66.4
 8         4.52                  8.48          0.826                    62.2
 9         4.28                  7.69          0.764                    59  
10         5.58                  9.94          0.858                    68.7
# ℹ 90 more rows
# ℹ 3 more variables: Freedom.to.make.life.choices <dbl>, Generosity <dbl>,
#   Perceptions.of.corruption <dbl>
…
